ss{
script[name:tdt]  {
		  <<public string GetResumePoint(string cases)
        {
            try
            {
			           if(String.IsNullOrEmpty(cases)){
                    return "CASE";
                 }
                TextReader txtReader = new StringReader(cases);
                XPathDocument xPathDoc = new XPathDocument(txtReader);
                XPathNavigator xPathNavigator = xPathDoc.CreateNavigator();

                XPathNavigator node = xPathNavigator.SelectSingleNode("CASES/CASE[PARENT_CASE_GUID = \"\"]/STATUS");

                if (node != null)
                {
                    switch (node.Value)
                    {
                        case "InProgress":
                        case "DiagnosticsInitiated":
                            return "SBE link";
                        case "DiagnosticsSkipped":
                        case "DiagnosticsUnsuccessful":
                        case "SwapOffered":
                            return "SwapOffered";
                        case "SwapConfirmed":
                            return "SwapConfirmed";
                        default:
                            return "Case";
                            
                    }
                }
                else
                {
                    return "Case";
                }
            }
            catch (Exception ex)
            {
                return ex.Message;
            }
        }>>
}

 template[name:test]{
  `~!@#$%^*()_+sds 

         fhsdjfhfsdjkfhdjkh#%#%$%#$##%$#%$%#$%##$`
}
}
